<?xml version="1.0" encoding="utf-8"?>
<!-- Generator: Avocode 2.6.0 - http://avocode.com -->
<svg height="173" width="291" xmlns:xlink="http://www.w3.org/1999/xlink" xmlns="http://www.w3.org/2000/svg" viewBox="0 0 291 173">
    <path stroke-linejoin="miter" stroke-linecap="butt" stroke-width="5" stroke="#e1e1e1" fill="none" opacity="0.22" fill-rule="evenodd" d="M 0 173 L 116.05 0 Z L 239 173 Z L 0 173 Z Z" />
    <path stroke-linejoin="miter" stroke-linecap="butt" stroke-width="3" stroke="#a6c772" fill="none" fill-rule="evenodd" d="M 152 19 L 291 19 Z L 291 145 Z L 152 145 Z L 152 19 Z Z" />
    <path stroke-linejoin="miter" stroke-linecap="butt" stroke-width="3" stroke="#a6c772" fill="none" fill-rule="evenodd" d="M 162 30 L 179 30 Z L 179 41 Z L 162 41 Z L 162 30 Z Z" />
    <path stroke-linejoin="miter" stroke-linecap="butt" stroke-width="3" stroke="#a6c772" fill="none" fill-rule="evenodd" d="M 182 30 L 199 30 Z L 199 41 Z L 182 41 Z L 182 30 Z Z" />
    <path stroke-linejoin="miter" stroke-linecap="butt" stroke-width="3" stroke="#a6c772" fill="none" fill-rule="evenodd" d="M 202 30 L 219 30 Z L 219 41 Z L 202 41 Z L 202 30 Z Z" />
    <path stroke-linejoin="miter" stroke-linecap="butt" stroke-width="3" stroke="#a6c772" fill="none" fill-rule="evenodd" d="M 194 81 L 222 81 Z L 222 92 Z L 194 92 Z L 194 81 Z Z" />
    <path stroke-linejoin="miter" stroke-linecap="butt" stroke-width="3" stroke="#a6c772" fill="none" fill-rule="evenodd" d="M 194 95 L 222 95 Z L 222 106 Z L 194 106 Z L 194 95 Z Z" />
    <path stroke-linejoin="miter" stroke-linecap="butt" stroke-width="3" stroke="#a6c772" fill="none" fill-rule="evenodd" d="M 194 109 L 222 109 Z L 222 120 Z L 194 120 Z L 194 109 Z Z" />
    <path stroke-linejoin="miter" stroke-linecap="butt" stroke-width="3" stroke="#a6c772" fill="none" fill-rule="evenodd" d="M 166 125 L 279 125 Z L 279 136 Z L 166 136 Z L 166 125 Z Z" />
    <path stroke-linejoin="miter" stroke-linecap="butt" stroke-width="3" stroke="#a6c772" fill="none" fill-rule="evenodd" d="M 222 30 L 239 30 Z L 239 41 Z L 222 41 Z L 222 30 Z Z" />
    <path stroke-linejoin="miter" stroke-linecap="butt" stroke-width="3" stroke="#a6c772" fill="none" fill-rule="evenodd" d="M 243 30 L 260 30 Z L 260 41 Z L 243 41 Z L 243 30 Z Z" />
    <path stroke-linejoin="miter" stroke-linecap="butt" stroke-width="3" stroke="#a6c772" fill="none" fill-rule="evenodd" d="M 263 30 L 280 30 Z L 280 41 Z L 263 41 Z L 263 30 Z Z" />
    <path stroke-linejoin="miter" stroke-linecap="butt" stroke-width="3" stroke="#857f90" fill="none" fill-rule="evenodd" d="M 277.01 49.46 L 254.19 72 Z L 253.07 70.77 Z L 253 70.84 Z L 235.68 52.88 Z L 218.37 70.84 Z L 217.21 69.65 Z L 217.15 69.72 Z L 203.09 55.13 Z L 191.21 67.46 Z L 190 66.21 Z L 189.93 66.28 Z L 181.26 56.37 Z L 167.3 70.84 Z L 165 68.45 Z L 180.21 52.67 Z L 180.28 52.74 Z L 181.48 51.61 Z L 191.2 62.69 Z L 201.94 51.55 Z L 202.01 51.62 Z L 203.16 50.42 Z L 218.3 66.13 Z L 234.53 49.29 Z L 234.6 49.36 Z L 235.75 48.17 Z L 254.21 67.31 Z L 274.76 47.01 Z L 277.01 49.46 Z Z" />
    <text font-weight="400" font-size="27" font-family="FontAwesome" fill="#bcd595" y="120" x="235">
        <tspan></tspan>
    </text>
    <path fill="#b39b75" fill-rule="evenodd" d="M 178 92 C 178 92 189.38 92.32 193 96 C 196.62 99.68 198 103 198 103 L 178 103 Z L 178 92 Z Z" />
    <path fill="#b39b75" fill-rule="evenodd" d="M 147 93 C 147 93 138.97 97.39 139 108 C 139.03 118.61 152 128 152 128" />
    <path fill="#b39b75" fill-rule="evenodd" d="M 198 103 C 198 103 200.97 124.95 185 125 C 168.56 125.05 180 103 180 103" />
    <path fill="#967741" fill-rule="evenodd" d="M 147 93 L 158 93 Z L 158 152 Z L 147 152 Z L 147 93 Z Z" />
    <path fill="#977641" fill-rule="evenodd" d="M 179 94 L 190 94 Z L 190 154 Z L 179 154 Z L 179 94 Z Z" />
    <path fill="#725d3a" fill-rule="evenodd" d="M 158 97 L 169 97 Z L 169 145 Z L 158 145 Z L 158 97 Z Z" />
    <path fill="#605134" fill-rule="evenodd" d="M 169 97 L 180 97 Z L 180 145 Z L 169 145 Z L 169 97 Z Z" />
    <path fill="#715d3a" fill-rule="evenodd" d="M 150 92 L 146 92 Z C 146 92 152.83 105 167 105 C 181.17 105 167 98 167 98 L 150 92 Z Z" />
    <path fill="#5f5233" fill-rule="evenodd" d="M 187.04 92 L 191 92 Z C 191 92 183.24 105 169.22 105 C 168.95 105 169.22 98 169.22 98 L 187.04 92 Z Z" />
    <path fill="#699100" fill-rule="evenodd" d="M 178 60 L 209 59 Z L 188 73 Z L 178 60 Z Z" />
    <path fill="#b6d467" fill-rule="evenodd" d="M 158 61 L 127 60 Z L 148 74 Z L 158 61 Z Z" />
    <path fill="#6c9400" fill-rule="evenodd" d="M 169 57 C 181.15 57 191 66.85 191 79 C 191 91.15 181.15 101 169 101 C 156.85 101 147 91.15 147 79 C 147 66.85 156.85 57 169 57 Z" />
    <path fill="#7bab22" fill-rule="evenodd" d="M 147 78 C 147 65.85 156.85 56 169 56 C 181.15 56 191 65.85 191 78" />
    <path fill="#79ab21" fill-rule="evenodd" d="M 169 101 C 156.85 101 147 91.15 147 79 C 147 66.85 156.85 57 169 57" />
    <path fill="#98c42a" fill-rule="evenodd" d="M 147 78 C 147 65.85 156.85 56 169 56 L 169 78 Z L 147 78 Z Z" />
    <path fill="#79ac22" fill-rule="evenodd" d="M 162.5 65 L 177.5 65 Z C 178.33 65 179 65.67 179 66.5 C 179 67.33 178.33 68 177.5 68 L 162.5 68 Z C 161.67 68 161 67.33 161 66.5 C 161 65.67 161.67 65 162.5 65 Z" />
    <path fill="#c8ffd5" fill-rule="evenodd" d="M 167 78 C 167 82.42 163.64 86 159.5 86 C 155.36 86 152 82.42 152 78" />
    <path fill="#6c9400" fill-rule="evenodd" d="M 173 100 C 173 100 162 104.14 162 93 C 162 81.86 176 92 176 92 L 173 100 Z Z" />
    <path fill="#b6d365" fill-rule="evenodd" d="M 152 78 C 152 73.58 155.36 70 159.5 70 C 163.64 70 167 73.58 167 78" />
    <path fill="#99c428" fill-rule="evenodd" d="M 162 92 C 162 87.58 165.36 84 169.5 84 C 173.64 84 177 87.58 177 92" />
    <path fill="#555658" fill-rule="evenodd" d="M 159 77 C 160.11 77 161 77.89 161 79 C 161 80.1 160.11 81 159 81 C 157.89 81 157 80.1 157 79 C 157 77.89 157.89 77 159 77 Z" />
    <path fill="#9bc42a" fill-rule="evenodd" d="M 172 78 C 172 73.58 175.36 70 179.5 70 C 183.64 70 187 73.58 187 78" />
    <path fill="#c8ffd5" fill-rule="evenodd" d="M 187 78 C 187 82.42 183.64 86 179.5 86 C 175.36 86 172 82.42 172 78" />
    <path fill="#555658" fill-rule="evenodd" d="M 179 77 C 180.1 77 181 77.89 181 79 C 181 80.1 180.1 81 179 81 C 177.9 81 177 80.1 177 79 C 177 77.89 177.9 77 179 77 Z" />
    <path stroke-linejoin="miter" stroke-linecap="butt" stroke-width="3" stroke="#484848" fill-opacity="0.67" fill="#698cc8" fill-rule="evenodd" d="M 149 76.06 C 149 76.06 154.62 67.89 169 74.69 C 169 74.69 168.06 87 159.67 87 C 151.27 87 150.4 80.93 149 76.06 Z" />
    <path stroke-linejoin="miter" stroke-linecap="butt" stroke-width="3" stroke="#484848" fill-opacity="0.67" fill="#698cc8" fill-rule="evenodd" d="M 169 76.06 C 169 76.06 174.62 67.89 189 74.69 C 189 74.69 188.06 87 179.67 87 C 171.27 87 170.4 80.93 169 76.06 Z" />
</svg>